{
  "variables": {
    "account_file": "{{env `GOOGLE_CLOUD_KEYFILE_JSON`}}",
    "project_id": "",
    "ssh_user": "logp",
    "source_image": "ubuntu-2004-focal-v20200423",
    "image_name": "logpserver-{{timestamp}}",
    "zone": "europe-west1-b"
  },
  "builders": [
    {
      "type": "googlecompute",
      "account_file": "{{user `account_file`}}",
      "project_id": "{{user `project_id`}}",
      "source_image": "{{user `source_image`}}",
      "ssh_username": "{{user `ssh_user`}}",
      "disk_size": "50",
      "image_name": "{{user `image_name`}}",
      "zone": "{{user `zone`}}"
    }
  ],
  "provisioners": [
    {
      "type": "shell",
      "script": "logpserver-provision.sh"
    }
  ]
}
